%YAML 1.1
%TAG !u! tag:unity3d.com,2011:
--- !u!114 &11400000
MonoBehaviour:
  m_ObjectHideFlags: 0
  m_CorrespondingSourceObject: {fileID: 0}
  m_PrefabInstance: {fileID: 0}
  m_PrefabAsset: {fileID: 0}
  m_GameObject: {fileID: 0}
  m_Enabled: 1
  m_EditorHideFlags: 0
  m_Script: {fileID: 11500000, guid: 13dc8447e314bc84c82f9fc271e57d73, type: 3}
  m_Name: Intensity of Pulseables
  m_EditorClassIdentifier: 
  isSelectedValue: 1
  valueSet:
    Name: Brightness
    initializedValue: 2.5
    multiplier: 1
    SliderValueAsStartingPoint: 0
    minimumNumber: 0
    maxNumber: 5
