%YAML 1.1
%TAG !u! tag:unity3d.com,2011:
--- !u!1 &6515500195354264328
GameObject:
  m_ObjectHideFlags: 0
  m_CorrespondingSourceObject: {fileID: 0}
  m_PrefabInstance: {fileID: 0}
  m_PrefabAsset: {fileID: 0}
  serializedVersion: 6
  m_Component:
  - component: {fileID: 6515500195354264325}
  - component: {fileID: 6515500195354264330}
  m_Layer: 0
  m_Name: PulseControlScripts_SpatialMesh
  m_TagString: Untagged
  m_Icon: {fileID: 0}
  m_NavMeshLayer: 0
  m_StaticEditorFlags: 0
  m_IsActive: 1
--- !u!4 &6515500195354264325
Transform:
  m_ObjectHideFlags: 0
  m_CorrespondingSourceObject: {fileID: 0}
  m_PrefabInstance: {fileID: 0}
  m_PrefabAsset: {fileID: 0}
  m_GameObject: {fileID: 6515500195354264328}
  m_LocalRotation: {x: -0, y: -0, z: -0, w: 1}
  m_LocalPosition: {x: 0, y: 0, z: 0}
  m_LocalScale: {x: 1, y: 1, z: 1}
  m_Children: []
  m_Father: {fileID: 0}
  m_RootOrder: 0
  m_LocalEulerAnglesHint: {x: 0, y: 0, z: 0}
--- !u!114 &6515500195354264330
MonoBehaviour:
  m_ObjectHideFlags: 0
  m_CorrespondingSourceObject: {fileID: 0}
  m_PrefabInstance: {fileID: 0}
  m_PrefabAsset: {fileID: 0}
  m_GameObject: {fileID: 6515500195354264328}
  m_Enabled: 1
  m_EditorHideFlags: 0
  m_Script: {fileID: 11500000, guid: 2bab03af0822e0346a066442cb1d38f5, type: 3}
  m_Name: 
  m_EditorClassIdentifier: 
  paramName: _Pulse_
  originParamName: _Pulse_Origin_
  pulseDuration: 5
  pulseRepeatMinDelay: 1
  autoStart: 0
  originFollowCamera: 0
  surfaceMat: {fileID: 2100000, guid: b24e702ba4a7dd14bb78e04ea42311ff, type: 2}
  pulseOnSelect: 1
